Size,Machines,Dist,TotalActiveTime,Savings
100,22,o1d,768038.738492,6910.02711000002
100,22,csc,695386.04766,44997.957778
100,22,cs,722931.990816,61833.526148
100,16,o1d,677735.756348,5412.89200400005
100,16,csc,626488.435685,28260.111979
100,16,cs,651330.61045,33373.36699
100,12,o1d,600334.129094,2561.58634600002
100,12,csc,565298.082362,10468.090354
100,12,cs,591075.341424,9620.66200800004
100,8,cs,482384.648184,6419.19867999996
100,8,o1d,487614.627575,775.115153000021
100,8,csc,467283.172228,5916.996316
100,10,cs,529917.172626,7660.01418399999
100,10,csc,521135.541746,8272.006994
100,10,o1d,544413.214841,1231.82450900001
