Size,Machines,Dist,Time,GFlops
100,10,bc,93.000,6342.14
100,10,csb,52.563,11221.26
100,10,csc,52.942,11140.87
100,10,cs,53.766,10970.08
100,10,o1d,54.596,10803.30
100,12,bc,83.121,7095.92
100,12,csb,47.725,12358.63
100,12,csc,47.981,12292.69
100,12,cs,50.059,11782.53
100,12,o1d,50.241,11739.73
100,16,bc,61.030,9664.35
100,16,csb,41.101,14350.65
100,16,csc,40.923,14412.77
100,16,cs,42.796,13782.24
100,16,o1d,42.698,13813.75
100,21,bc,49.019,12032.58
100,21,csb,36.628,16102.76
100,21,csc,36.163,16310.17
100,21,cs,37.176,15865.50
100,21,o1d,36.840,16010.18
100,22,bc,48.536,12152.19
100,22,csb,33.783,17459.07
100,22,csc,33.655,17525.45
100,22,cs,35.672,16534.35
100,22,o1d,35.226,16743.98
100,46,bc,48.231,12228.98
100,46,csb,19.191,30734.21
100,46,csc,18.971,31089.81
100,46,cs,19.242,30653.31
100,46,o1d,19.461,30307.17
150,46,bc,113.261,17575.67
150,46,csb,55.249,36030.40
150,46,csc,54.967,36215.51
150,46,cs,57.482,34631.01
150,46,o1d,57.711,34493.23
100,8,bc,62.024,9509.47
100,8,csb,58.834,10025.10
100,8,csc,59.152,9971.31
100,8,cs,61.104,9652.76
100,8,o1d,61.050,9661.33
100,6,bc,81.209,7262.95
100,6,csb,77.815,7579.73
100,6,csc,77.986,7563.11
100,6,cs,79.884,7383.47
100,6,o1d,79.942,7378.08
25,46,bc,4.296,2145.16
25,46,csb,1.901,4847.66
25,46,csc,1.901,4847.66
25,46,cs,1.901,4847.66
25,46,o1d,2.816,3272.42
30,100,bc,4.275,3724.99
30,100,csb,4.422,3601.17
30,100,csc,4.431,3593.85
30,100,cs,4.294,3708.68
30,100,o1d,4.274,3726.20
50,100,bc,7.291,10112.37
50,100,csb,7.893,9341.11
50,100,csc,7.893,9341.11
50,100,cs,8.106,9095.58
50,100,o1d,7.297,10103.37
50,46,bc,13.958,5281.88
50,46,csb,5.824,12658.56
50,46,csc,5.700,12934.17
50,46,cs,5.734,12858.85
50,46,o1d,6.283,11733.74
70,100,bc,10.959,18459.92
70,100,csb,11.961,16913.37
70,100,csc,11.809,17131.45
70,100,cs,12.578,16084.50
70,100,o1d,10.894,18570.39
100,45.1,bc,25.472,23155.49
100,45.1,o1d,25.412,23210.31
100,46.1,bc,46.812,12599.70
100,46.1,o1d,24.933,23655.93
100,47.1,bc,203.386,2900.00
100,47.1,o1d,24.669,23909.48
100,48.1,bc,24.214,24358.56
100,48.1,o1d,24.270,24302.26
100,49.1,bc,23.671,24917.74
100,49.1,o1d,23.844,24736.90
100,50.1,bc,23.449,25153.12
100,50.1,o1d,22.941,25710.51
100,16.1,bc,63.703, 9258.85
100,16.1,o1d,63.696, 9259.92
100,17.1,bc,84.973, 6941.29
100,17.1,o1d,59.282, 9949.38
100,18.1,bc,56.947,10357.43
100,18.1,o1d,56.349,10467.19
100,19.1,bc,92.149, 6400.73
100,19.1,o1d,54.425,10837.38
100,20.1,bc,51.700,11408.55
100,20.1,o1d,51.706,11407.07
100,21.1,bc,49.171,11995.16
100,21.1,o1d,48.413,12183.10
100,22.1,bc,48.691,12113.48
100,22.1,o1d,46.773,12610.14
100,23.1,bc,110.809, 5322.83
100,23.1,o1d,45.428,12983.55
100,24.1,bc,43.835,13455.53
100,24.1,o1d,43.661,13509.06
100,25.1,bc,42.158,13990.73
100,25.1,o1d,42.168,13987.41
100,26.1,bc,42.027,14034.25
100,26.1,o1d,39.682,14863.63
100,27.1,bc,39.293,15010.61
100,27.1,o1d,38.876,15171.95
100,28.1,bc,38.180,15448.29
100,28.1,o1d,37.512,15723.61
100,29.1,bc,135.157, 4363.97
100,29.1,o1d,37.023,15931.25
100,30.1,bc,35.833,16460.20
100,30.1,o1d,35.807,16472.39
100,31.1,bc,143.035, 4123.60
100,31.1,o1d,34.491,17100.88
100,32.1,bc,34.043,17325.72
100,32.1,o1d,33.229,17749.92
100,33.1,bc,33.246,17741.16
100,33.1,o1d,32.818,17972.46
100,34.1,bc,42.360,13923.85
100,34.1,o1d,31.915,18481.13
100,35.1,bc,31.327,18827.73
100,35.1,o1d,31.276,18858.70
100,36.1,bc,30.599,19275.84
100,36.1,o1d,30.631,19255.33
100,37.1,bc,166.458,3543.35
100,37.1,o1d,29.672,19877.74
100,38.1,bc,41.770,14120.75
100,38.1,o1d,29.007,20333.48
100,39.1,bc,29.124,20251.75
100,39.1,o1d,28.576,20640.31
100,40.1,bc,28.144,20957.48
100,40.1,o1d,28.020,21049.67
100,41.1,bc,181.994, 3240.86
100,41.1,o1d,27.530,21424.92
100,42.1,bc,26.970,21869.33
100,42.1,o1d,26.977,21863.84
100,43.1,bc,189.237,3116.82
100,43.1,o1d,25.943,22735.62
100,44.1,bc,26.100,22598.51
100,44.1,o1d,25.743,22912.14
